[
    {
        "inputs": [
            {
                "internalType": "address",
                "name": "_vrfCoordinator",
                "type": "address"
            },
            {
                "internalType": "address",
                "name": "_linkToken",
                "type": "address"
            },
            {
                "internalType": "bytes32",
                "name": "_keyHash",
                "type": "bytes32"
            },
            {
                "internalType": "uint256",
                "name": "_fee",
                "type": "uint256"
            }
        ],
        "stateMutability": "nonpayable",
        "type": "constructor"
    },
    {
        "anonymous": false,
        "inputs": [
            {
                "indexed": false,
                "internalType": "uint256",
                "name": "battleId",
                "type": "uint256"
            }
        ],
        "name": "BattleEnded",
        "type": "event"
    },
    {
        "anonymous": false,
        "inputs": [
            {
                "indexed": false,
                "internalType": "uint256",
                "name": "battleId",
                "type": "uint256"
            },
            {
                "indexed": false,
                "internalType": "bytes32",
                "name": "requestId",
                "type": "bytes32"
            }
        ],
        "name": "ChainlinkRequest",
        "type": "event"
    },
    {
        "anonymous": false,
        "inputs": [
            {
                "indexed": false,
                "internalType": "uint256",
                "name": "battleId",
                "type": "uint256"
            },
            {
                "indexed": false,
                "internalType": "bytes32",
                "name": "requestId",
                "type": "bytes32"
            },
            {
                "indexed": false,
                "internalType": "uint256",
                "name": "randomNumber",
                "type": "uint256"
            }
        ],
        "name": "ChainlinkResponse",
        "type": "event"
    },
    {
        "anonymous": false,
        "inputs": [
            {
                "indexed": false,
                "internalType": "uint256",
                "name": "battleId",
                "type": "uint256"
            },
            {
                "indexed": false,
                "internalType": "uint256",
                "name": "nftId",
                "type": "uint256"
            },
            {
                "indexed": false,
                "internalType": "address",
                "name": "nftOwner",
                "type": "address"
            },
            {
                "indexed": false,
                "internalType": "uint256",
                "name": "amount",
                "type": "uint256"
            }
        ],
        "name": "ClaimedAward",
        "type": "event"
    },
    {
        "anonymous": false,
        "inputs": [
            {
                "indexed": false,
                "internalType": "uint256",
                "name": "battleId",
                "type": "uint256"
            },
            {
                "indexed": false,
                "internalType": "address",
                "name": "nftOwner",
                "type": "address"
            },
            {
                "indexed": false,
                "internalType": "uint256",
                "name": "amount",
                "type": "uint256"
            }
        ],
        "name": "ClaimedFee",
        "type": "event"
    },
    {
        "anonymous": false,
        "inputs": [
            {
                "indexed": false,
                "internalType": "uint256",
                "name": "battleId",
                "type": "uint256"
            },
            {
                "indexed": false,
                "internalType": "address",
                "name": "creator",
                "type": "address"
            },
            {
                "indexed": false,
                "internalType": "uint256",
                "name": "startTime",
                "type": "uint256"
            },
            {
                "indexed": false,
                "internalType": "uint256",
                "name": "endTime",
                "type": "uint256"
            },
            {
                "indexed": false,
                "internalType": "uint256",
                "name": "fee",
                "type": "uint256"
            },
            {
                "indexed": false,
                "internalType": "uint256",
                "name": "entryLimit",
                "type": "uint256"
            },
            {
                "indexed": false,
                "internalType": "uint256",
                "name": "level",
                "type": "uint256"
            }
        ],
        "name": "NewBattle",
        "type": "event"
    },
    {
        "anonymous": false,
        "inputs": [
            {
                "indexed": false,
                "internalType": "uint256",
                "name": "battleId",
                "type": "uint256"
            },
            {
                "indexed": false,
                "internalType": "uint256",
                "name": "battleBalance",
                "type": "uint256"
            },
            {
                "indexed": false,
                "internalType": "uint256",
                "name": "nftId",
                "type": "uint256"
            },
            {
                "indexed": false,
                "internalType": "address",
                "name": "nftOwner",
                "type": "address"
            }
        ],
        "name": "NewParticipantJoined",
        "type": "event"
    },
    {
        "anonymous": false,
        "inputs": [
            {
                "indexed": false,
                "internalType": "uint256",
                "name": "battleId",
                "type": "uint256"
            },
            {
                "indexed": false,
                "internalType": "uint256",
                "name": "nftId",
                "type": "uint256"
            },
            {
                "indexed": false,
                "internalType": "address",
                "name": "nftOwner",
                "type": "address"
            }
        ],
        "name": "NewWinner",
        "type": "event"
    },
    {
        "anonymous": false,
        "inputs": [
            {
                "indexed": true,
                "internalType": "address",
                "name": "previousOwner",
                "type": "address"
            },
            {
                "indexed": true,
                "internalType": "address",
                "name": "newOwner",
                "type": "address"
            }
        ],
        "name": "OwnershipTransferred",
        "type": "event"
    },
    {
        "anonymous": false,
        "inputs": [
            {
                "indexed": false,
                "internalType": "address",
                "name": "target",
                "type": "address"
            },
            {
                "indexed": false,
                "internalType": "address",
                "name": "token",
                "type": "address"
            },
            {
                "indexed": false,
                "internalType": "uint256",
                "name": "amount",
                "type": "uint256"
            }
        ],
        "name": "WithdrawBalance",
        "type": "event"
    },
    {
        "inputs": [],
        "name": "battleTime",
        "outputs": [
            {
                "internalType": "uint256",
                "name": "",
                "type": "uint256"
            }
        ],
        "stateMutability": "view",
        "type": "function"
    },
    {
        "inputs": [
            {
                "internalType": "uint256",
                "name": "",
                "type": "uint256"
            }
        ],
        "name": "battles",
        "outputs": [
            {
                "internalType": "uint256",
                "name": "id",
                "type": "uint256"
            },
            {
                "internalType": "address",
                "name": "owner",
                "type": "address"
            },
            {
                "internalType": "uint256",
                "name": "startTime",
                "type": "uint256"
            },
            {
                "internalType": "uint256",
                "name": "endTime",
                "type": "uint256"
            },
            {
                "internalType": "uint256",
                "name": "fee",
                "type": "uint256"
            },
            {
                "internalType": "uint256",
                "name": "entryLimit",
                "type": "uint256"
            },
            {
                "internalType": "uint256",
                "name": "level",
                "type": "uint256"
            },
            {
                "internalType": "uint256",
                "name": "balance",
                "type": "uint256"
            },
            {
                "internalType": "enum PrivateBattle.STATUS",
                "name": "status",
                "type": "uint8"
            }
        ],
        "stateMutability": "view",
        "type": "function"
    },
    {
        "inputs": [],
        "name": "battlesCount",
        "outputs": [
            {
                "internalType": "uint256",
                "name": "",
                "type": "uint256"
            }
        ],
        "stateMutability": "view",
        "type": "function"
    },
    {
        "inputs": [
            {
                "internalType": "uint256",
                "name": "_battleId",
                "type": "uint256"
            }
        ],
        "name": "claimAward",
        "outputs": [],
        "stateMutability": "nonpayable",
        "type": "function"
    },
    {
        "inputs": [
            {
                "internalType": "uint256",
                "name": "_nftId",
                "type": "uint256"
            },
            {
                "internalType": "uint256",
                "name": "_startTime",
                "type": "uint256"
            },
            {
                "internalType": "uint256",
                "name": "_fee",
                "type": "uint256"
            },
            {
                "internalType": "uint256",
                "name": "_entryLimit",
                "type": "uint256"
            }
        ],
        "name": "createBattle",
        "outputs": [
            {
                "internalType": "uint256",
                "name": "",
                "type": "uint256"
            }
        ],
        "stateMutability": "nonpayable",
        "type": "function"
    },
    {
        "inputs": [],
        "name": "creatorFee",
        "outputs": [
            {
                "internalType": "uint256",
                "name": "",
                "type": "uint256"
            }
        ],
        "stateMutability": "view",
        "type": "function"
    },
    {
        "inputs": [
            {
                "internalType": "uint256",
                "name": "_battleId",
                "type": "uint256"
            }
        ],
        "name": "endBattle",
        "outputs": [],
        "stateMutability": "nonpayable",
        "type": "function"
    },
    {
        "inputs": [
            {
                "internalType": "address",
                "name": "_nft",
                "type": "address"
            },
            {
                "internalType": "address",
                "name": "_gfx",
                "type": "address"
            }
        ],
        "name": "initialize",
        "outputs": [],
        "stateMutability": "nonpayable",
        "type": "function"
    },
    {
        "inputs": [],
        "name": "minFoundationFee",
        "outputs": [
            {
                "internalType": "uint256",
                "name": "",
                "type": "uint256"
            }
        ],
        "stateMutability": "view",
        "type": "function"
    },
    {
        "inputs": [],
        "name": "owner",
        "outputs": [
            {
                "internalType": "address",
                "name": "",
                "type": "address"
            }
        ],
        "stateMutability": "view",
        "type": "function"
    },
    {
        "inputs": [
            {
                "internalType": "uint256",
                "name": "",
                "type": "uint256"
            },
            {
                "internalType": "uint256",
                "name": "",
                "type": "uint256"
            }
        ],
        "name": "participants",
        "outputs": [
            {
                "internalType": "uint256",
                "name": "nftId",
                "type": "uint256"
            },
            {
                "internalType": "address",
                "name": "nftOwner",
                "type": "address"
            }
        ],
        "stateMutability": "view",
        "type": "function"
    },
    {
        "inputs": [
            {
                "internalType": "uint256",
                "name": "",
                "type": "uint256"
            }
        ],
        "name": "participantsCount",
        "outputs": [
            {
                "internalType": "uint256",
                "name": "",
                "type": "uint256"
            }
        ],
        "stateMutability": "view",
        "type": "function"
    },
    {
        "inputs": [
            {
                "internalType": "uint256",
                "name": "_battleId",
                "type": "uint256"
            },
            {
                "internalType": "uint256",
                "name": "_nftId",
                "type": "uint256"
            }
        ],
        "name": "participateBattle",
        "outputs": [],
        "stateMutability": "nonpayable",
        "type": "function"
    },
    {
        "inputs": [
            {
                "internalType": "bytes32",
                "name": "requestId",
                "type": "bytes32"
            },
            {
                "internalType": "uint256",
                "name": "randomness",
                "type": "uint256"
            }
        ],
        "name": "rawFulfillRandomness",
        "outputs": [],
        "stateMutability": "nonpayable",
        "type": "function"
    },
    {
        "inputs": [
            {
                "internalType": "uint256",
                "name": "_battleId",
                "type": "uint256"
            }
        ],
        "name": "refundNFT",
        "outputs": [],
        "stateMutability": "nonpayable",
        "type": "function"
    },
    {
        "inputs": [],
        "name": "renounceOwnership",
        "outputs": [],
        "stateMutability": "nonpayable",
        "type": "function"
    },
    {
        "inputs": [
            {
                "internalType": "bytes32",
                "name": "",
                "type": "bytes32"
            }
        ],
        "name": "requestedBattles",
        "outputs": [
            {
                "internalType": "uint256",
                "name": "",
                "type": "uint256"
            }
        ],
        "stateMutability": "view",
        "type": "function"
    },
    {
        "inputs": [],
        "name": "requiredGfxAmount",
        "outputs": [
            {
                "internalType": "uint256",
                "name": "",
                "type": "uint256"
            }
        ],
        "stateMutability": "view",
        "type": "function"
    },
    {
        "inputs": [],
        "name": "serviceFee",
        "outputs": [
            {
                "internalType": "uint256",
                "name": "",
                "type": "uint256"
            }
        ],
        "stateMutability": "view",
        "type": "function"
    },
    {
        "inputs": [
            {
                "internalType": "uint256",
                "name": "_battleTime",
                "type": "uint256"
            }
        ],
        "name": "setBattleTime",
        "outputs": [],
        "stateMutability": "nonpayable",
        "type": "function"
    },
    {
        "inputs": [
            {
                "internalType": "uint256",
                "name": "_fee",
                "type": "uint256"
            }
        ],
        "name": "setChainlinkFee",
        "outputs": [],
        "stateMutability": "nonpayable",
        "type": "function"
    },
    {
        "inputs": [
            {
                "internalType": "uint256",
                "name": "_fee",
                "type": "uint256"
            }
        ],
        "name": "setCreatorFee",
        "outputs": [],
        "stateMutability": "nonpayable",
        "type": "function"
    },
    {
        "inputs": [
            {
                "internalType": "uint256",
                "name": "_fee",
                "type": "uint256"
            }
        ],
        "name": "setMinFoundationFee",
        "outputs": [],
        "stateMutability": "nonpayable",
        "type": "function"
    },
    {
        "inputs": [
            {
                "internalType": "uint256",
                "name": "_amount",
                "type": "uint256"
            }
        ],
        "name": "setRequiredGfxAmount",
        "outputs": [],
        "stateMutability": "nonpayable",
        "type": "function"
    },
    {
        "inputs": [
            {
                "internalType": "uint256",
                "name": "_fee",
                "type": "uint256"
            }
        ],
        "name": "setServiceFee",
        "outputs": [],
        "stateMutability": "nonpayable",
        "type": "function"
    },
    {
        "inputs": [
            {
                "internalType": "string",
                "name": "_uri",
                "type": "string"
            }
        ],
        "name": "setWinnerURI",
        "outputs": [],
        "stateMutability": "nonpayable",
        "type": "function"
    },
    {
        "inputs": [
            {
                "internalType": "address",
                "name": "newOwner",
                "type": "address"
            }
        ],
        "name": "transferOwnership",
        "outputs": [],
        "stateMutability": "nonpayable",
        "type": "function"
    },
    {
        "inputs": [],
        "name": "winnerURI",
        "outputs": [
            {
                "internalType": "string",
                "name": "",
                "type": "string"
            }
        ],
        "stateMutability": "view",
        "type": "function"
    },
    {
        "inputs": [
            {
                "internalType": "uint256",
                "name": "",
                "type": "uint256"
            }
        ],
        "name": "winners",
        "outputs": [
            {
                "internalType": "uint256",
                "name": "nftId",
                "type": "uint256"
            },
            {
                "internalType": "address",
                "name": "nftOwner",
                "type": "address"
            },
            {
                "internalType": "bool",
                "name": "claimedAward",
                "type": "bool"
            }
        ],
        "stateMutability": "view",
        "type": "function"
    },
    {
        "inputs": [
            {
                "internalType": "address",
                "name": "_target",
                "type": "address"
            },
            {
                "internalType": "address",
                "name": "_token",
                "type": "address"
            },
            {
                "internalType": "uint256",
                "name": "_amount",
                "type": "uint256"
            }
        ],
        "name": "withdrawBalance",
        "outputs": [],
        "stateMutability": "nonpayable",
        "type": "function"
    }
]